Data Wrangling Training
…
# Filter for multiple countries - use the `%in%` operator on `c()`
filter(gapminder, country %in% c("Mexico", "Chile"))

## # A tibble: 24 x 6
##    country  year      pop continent lifeExp gdpPercap
##    <chr>   <int>    <dbl> <chr>       <dbl>     <dbl>
##  1 Chile    1952  6377619 Americas     54.7      3940
##  2 Chile    1957  7048426 Americas     56.1      4316
##  3 Chile    1962  7961258 Americas     57.9      4519
##  4 Chile    1967  8858908 Americas     60.5      5107
##  5 Chile    1972  9717524 Americas     63.4      5494
##  6 Chile    1977 10599793 Americas     67.1      4757
##  7 Chile    1982 11487112 Americas     70.6      5096
##  8 Chile    1987 12463354 Americas     72.5      5547
##  9 Chile    1992 13572994 Americas     74.1      7596
## 10 Chile    1997 14599929 Americas     75.8     10118
## # ... with 14 more rows

# Filter for 1 country in a specific year
filter(gapminder, country == "Mexico", year == 2002)

## # A tibble: 1 x 6
##   country  year       pop continent lifeExp gdpPercap
##   <chr>   <int>     <dbl> <chr>       <dbl>     <dbl>
## 1 Mexico   2002 102479927 Americas     74.9     10742

# Select by columns
select(gapminder, year, lifeExp)

## # A tibble: 1,704 x 2
##     year lifeExp
##    <int>   <dbl>
##  1  1952    28.8
##  2  1957    30.3
##  3  1962    32.0
##  4  1967    34.0
##  5  1972    36.1
##  6  1977    38.4
##  7  1982    39.9
##  8  1987    40.8
##  9  1992    41.7
## 10  1997    41.8
## # ... with 1,694 more rows

# Use the `-` to deselect columns
select(gapminder, -continent, -lifeExp)

## # A tibble: 1,704 x 4
##    country      year      pop gdpPercap
##    <chr>       <int>    <dbl>     <dbl>
##  1 Afghanistan  1952  8425333       779
##  2 Afghanistan  1957  9240934       821
##  3 Afghanistan  1962 10267083       853
##  4 Afghanistan  1967 11537966       836
##  5 Afghanistan  1972 13079460       740
##  6 Afghanistan  1977 14880372       786
##  7 Afghanistan  1982 12881816       978
##  8 Afghanistan  1987 13867957       852
##  9 Afghanistan  1992 16317921       649
## 10 Afghanistan  1997 22227415       635
## # ... with 1,694 more rows
…
# or you could combine the two variables created above by stacking `%>%` operators
gap_cambodia3 <- gapminder %>% 
  filter(country == "Cambodia") %>% 
  select(-continent, -lifeExp)

To add variables use mutate()

You can run other functions inside the mutate() function

You can also run mathematical operations on existing columns

gapminder %>% 
  mutate(index = 1:nrow(gapminder))

## # A tibble: 1,704 x 7
##    country      year      pop continent lifeExp gdpPercap index
##    <chr>       <int>    <dbl> <chr>       <dbl>     <dbl> <int>
##  1 Afghanistan  1952  8425333 Asia         28.8       779     1
##  2 Afghanistan  1957  9240934 Asia         30.3       821     2
##  3 Afghanistan  1962 10267083 Asia         32.0       853     3
##  4 Afghanistan  1967 11537966 Asia         34.0       836     4
##  5 Afghanistan  1972 13079460 Asia         36.1       740     5
##  6 Afghanistan  1977 14880372 Asia         38.4       786     6
##  7 Afghanistan  1982 12881816 Asia         39.9       978     7
##  8 Afghanistan  1987 13867957 Asia         40.8       852     8
##  9 Afghanistan  1992 16317921 Asia         41.7       649     9
## 10 Afghanistan  1997 22227415 Asia         41.8       635    10
## # ... with 1,694 more rows

gapminder %>% 
  mutate(gdp = pop*gdpPercap) # can't call 'pop' or 'gdpPercap' by itself

## # A tibble: 1,704 x 7
##    country      year      pop continent lifeExp gdpPercap         gdp
##    <chr>       <int>    <dbl> <chr>       <dbl>     <dbl>       <dbl>
##  1 Afghanistan  1952  8425333 Asia         28.8       779  6567086330
##  2 Afghanistan  1957  9240934 Asia         30.3       821  7585448670
##  3 Afghanistan  1962 10267083 Asia         32.0       853  8758855797
##  4 Afghanistan  1967 11537966 Asia         34.0       836  9648014150
##  5 Afghanistan  1972 13079460 Asia         36.1       740  9678553274
##  6 Afghanistan  1977 14880372 Asia         38.4       786 11697659231
##  7 Afghanistan  1982 12881816 Asia         39.9       978 12598563401
##  8 Afghanistan  1987 13867957 Asia         40.8       852 11820990309
##  9 Afghanistan  1992 16317921 Asia         41.7       649 10595901589
## 10 Afghanistan  1997 22227415 Asia         41.8       635 14121995875
## # ... with 1,694 more rows

Exercise: Find the maximum gdpPercap of Egypt and Vietnam, and save it in a new column

First filter for Egypt and Vietnam

Then use mutate to create a new column that has the max GDP between Egypt and Vietnam together

What if we want the max GDP of Egypt and max GDP of Vietnam separately? Use group_by

# Find max GDP per capita of both Egypt and Vietnam
gapminder %>% 
  filter(country %in% c("Egypt","Vietnam")) %>% 
  mutate(max_gdp = max(gdpPercap))

## # A tibble: 24 x 7
##    country  year      pop continent lifeExp gdpPercap max_gdp
##    <chr>   <int>    <dbl> <chr>       <dbl>     <dbl>   <dbl>
##  1 Egypt    1952 22223309 Africa       41.9      1419    5581
##  2 Egypt    1957 25009741 Africa       44.4      1459    5581
##  3 Egypt    1962 28173309 Africa       47.0      1693    5581
##  4 Egypt    1967 31681188 Africa       49.3      1815    5581
##  5 Egypt    1972 34807417 Africa       51.1      2024    5581
##  6 Egypt    1977 38783863 Africa       53.3      2785    5581
##  7 Egypt    1982 45681811 Africa       56.0      3504    5581
##  8 Egypt    1987 52799062 Africa       59.8      3885    5581
##  9 Egypt    1992 59402198 Africa       63.7      3795    5581
## 10 Egypt    1997 66134291 Africa       67.2      4173    5581
## # ... with 14 more rows
…
Summarize and group_by together

While it can be nice to replicate the max_gdp value for each observation especially when you are running commands on all the observations, you may also want to just select the single value of max gdp for each country.

Note: CTRL+I is the shortcut for reindenting lines.

gapminder %>% 
  group_by(country) %>% 
  mutate(gdp = pop*gdpPercap) %>% 
  summarize(max_gdp = max(gdp)) %>% 
  ungroup() %>% 
  arrange(max_gdp) # ascending order

## # A tibble: 142 x 2
##    country                     max_gdp
##    <chr>                         <dbl>
##  1 Sao Tome and Principe     319014077
##  2 Comoros                   701111696
##  3 Guinea-Bissau             950984749
##  4 Djibouti                 1033689705
##  5 Gambia                   1270911775
##  6 Liberia                  1495937378
##  7 Central African Republic 3084613079
##  8 Lesotho                  3158513357
##  9 Burundi                  3669693671
## 10 Eritrea                  3707155863
## # ... with 132 more rows

gapminder %>% 
  group_by(country) %>% 
  mutate(gdp = pop*gdpPercap) %>% 
  summarize(max_gdp = max(gdp)) %>% 
  ungroup() %>% 
  arrange(desc(max_gdp)) # descending order

## # A tibble: 142 x 2
##    country               max_gdp
##    <chr>                   <dbl>
##  1 United States  12934458535085
##  2 China           6539500929092
##  3 Japan           4035134797102
##  4 India           2722925438773
##  5 Germany         2650870893901
##  6 United Kingdom  2017969309929
##  7 France          1861227940621
##  8 Brazil          1722598680331
##  9 Italy           1661264433000
## 10 Mexico          1301973070171
## # ... with 132 more rows
…
# Grab max life expectancy for countries in Asia
gapminder %>% 
  filter(continent == "Asia") %>% 
  group_by(country) %>% 
  summarize(max_gdp = max(lifeExp)) %>% 
  ungroup() %>% 
  dplyr::arrange(desc(max_gdp)) # descending order

## # A tibble: 33 x 2
##    country         max_gdp
##    <chr>             <dbl>
##  1 Japan              82.6
##  2 Hong Kong China    82.2
##  3 Israel             80.7
##  4 Singapore          80.0
##  5 Korea Rep.         78.6
##  6 Taiwan             78.4
##  7 Kuwait             77.6
##  8 Oman               75.6
##  9 Bahrain            75.6
## 10 Vietnam            74.2
## # ... with 23 more rows
…
